Algorithme nsgaII :
14727719228
../output/0/71/nsgaII/generation_nsgaII_097.sav
Algorithme IBEA :
14726605298
../output/0/61/IBEA/generation_IBEA_087.sav
Algorithme MOEAD-DE :
14431071380
../output/0/60/moeaDDE/generation_moeaDDE_085.sav
